<?xml version="1.0" encoding="UTF-8"?>
<svg width="212px" height="76px" viewBox="0 0 212 76" version="1.1" xmlns="http://www.w3.org/2000/svg" xmlns:xlink="http://www.w3.org/1999/xlink">
    <!-- Generator: Sketch 59.1 (86144) - https://sketch.com -->
    <title>linear-bg</title>
    <desc>Created with Sketch.</desc>
    <g id="Page-1" stroke="none" stroke-width="1" fill="none" fill-rule="evenodd">
        <g id="linear-bg" transform="translate(-27.000000, -27.000000)" fill-rule="nonzero">
            <rect id="Rectangle" x="0" y="0" width="266" height="130" rx="4"></rect>
            <path d="M60.948,33.479 L77.094,33.479 L66.75,51.349 L56.672,33.93 C57.615,33.609 58.898,33.479 60.948,33.479 M52.385,96.0580119 C47.9274742,96.0629984 43.6118898,94.4909255 40.202,91.62 C36.082,88.158 33.467,82.975 33.467,77.18 C33.467,73.692 34.41,70.42 36.064,67.617 C36.064,67.617 52.32,39.529 52.381,39.417 L58.726,50.363 L58.726,50.365 L58.73,50.373 L68.698,67.606 C68.698,67.612 68.702,67.617 68.702,67.621 C70.4125206,70.5161006 71.3120021,73.8183445 71.3060298,77.181 C71.3060298,87.607 62.834,96.0580119 52.385,96.0580119" id="Shape" fill="#FFFFFE"></path>
            <path d="M66.473,77.182 C66.473,84.943 60.166,91.235 52.389,91.235 C44.608,91.235 38.301,84.943 38.301,77.182 C38.301,69.42 44.608,63.127 52.389,63.127 C60.166,63.127 66.473,69.42 66.473,77.182" id="Path" fill="#16A89A"></path>
            <path d="M52.385,96.0580119 C47.9274742,96.0629984 43.6118898,94.4909255 40.202,91.62 C36.082,88.158 33.467,82.975 33.467,77.18 C33.467,73.692 34.41,70.42 36.064,67.617 C36.064,67.617 52.32,39.529 52.381,39.417 L58.726,50.363 L58.726,50.365 L58.73,50.373 L68.698,67.606 C68.698,67.612 68.702,67.617 68.702,67.621 C70.4125206,70.5161006 71.3120021,73.8183445 71.3060298,77.181 C71.3060298,87.607 62.834,96.0580119 52.385,96.0580119 M60.948,33.478 L77.094,33.478 L66.75,51.35 L56.672,33.93 C57.615,33.609 58.898,33.479 60.948,33.479 M70.497,57.826 L88.34,27 L60.807,27 C53.129,27.202 51.117,28.711 48.193,33.757 C48.193,33.757 30.49,64.353 30.482,64.371 C28.2032141,68.2551766 27.0012661,72.6767022 27,77.18 C27,86.401 31.936,94.47 39.32,98.9 C43.2658337,101.268807 47.7827385,102.517222 52.385,102.511023 C66.408,102.511023 77.773,91.17 77.773,77.181 C77.773,72.389 76.437,67.908 74.12,64.087 L70.497,57.825" id="Shape" fill="#16A89A"></path>
            <path d="M154.512,62.38 C154.512,63.786 153.442,64.697 151.679,64.697 L148.72,64.697 L148.72,60.759 C148.72,60.335 149.064,59.985 149.488,59.985 L151.648,59.985 C153.443,59.985 154.512,60.795 154.512,62.33 L154.512,62.38 L154.512,62.38 Z M159.464,62.155 L159.464,62.111 C159.464,58.144 156.551,55.819 152.03,55.819 L145.028,55.819 C144.36,55.819 143.765,56.359 143.765,56.985 L143.765,73.673 L148.72,73.673 L148.72,69.165 C148.72,68.876 149.007,68.57 149.281,68.57 L151.041,68.57 L154.493,73.673 L160.223,73.673 L156.1,67.686 C158.173,66.663 159.464,64.801 159.464,62.155 L159.464,62.155 Z M175.67,64.793 C175.67,67.368 173.868,69.566 171.12,69.566 C168.416,69.566 166.546,67.324 166.546,64.756 L166.546,64.698 C166.546,62.122 168.366,59.928 171.074,59.928 C173.807,59.928 175.67,62.177 175.67,64.755 L175.67,64.793 L175.67,64.793 Z M171.12,55.467 C165.599,55.467 161.468,59.623 161.468,64.755 L161.468,64.793 C161.468,69.935 165.549,74.042 171.074,74.042 C176.594,74.042 180.74,69.872 180.74,64.755 L180.74,64.698 C180.74,59.578 176.636,55.467 171.12,55.467 L171.12,55.467 Z M195.378,56.965 L195.378,65.263 L188.018,55.817 L184.661,55.817 C183.959,55.817 183.39,56.395 183.39,57.095 L183.39,73.671 L188.3,73.671 L188.3,63.887 L195.943,73.671 L200.276,73.671 L200.276,55.817 L196.638,55.817 C195.974,55.817 195.378,56.323 195.378,56.965 M125.584,57.045 L125.584,60.163 L130.944,60.163 L130.944,73.671 L135.908,73.671 L135.908,60.728 C135.908,60.422 136.163,60.163 136.53,60.163 L141.275,60.163 L141.275,55.82 L126.852,55.82 C126.164,55.82 125.584,56.415 125.584,57.046 M109.007,57.054 L109.007,73.673 L123.393,73.673 L123.393,69.457 L113.913,69.457 L113.913,67.311 C113.913,66.976 114.211,66.634 114.528,66.634 L122.278,66.634 L122.278,62.736 L113.913,62.736 L113.913,60.707 C113.913,60.39 114.18,60.032 114.49,60.032 L123.393,60.032 L123.393,55.82 L110.278,55.82 C109.595,55.82 109.003,56.384 109.008,57.055 M232.19,62.55 C229.697,61.994 229.09,61.638 229.09,60.831 L229.09,60.771 C229.09,60.131 229.674,59.622 230.872,59.622 C231.976,59.622 233.152,59.917 234.32,60.472 C234.32,60.472 234.576,60.598 234.686,60.66 C235.026,60.813 235.419,60.94 235.908,60.837 C236.252,60.763 236.504,60.451 236.813,60.079 L238.363,57.89 C236.427,56.333 234.056,55.515 231.003,55.515 C226.715,55.515 224.077,57.915 224.077,61.233 L224.077,61.283 C224.077,64.954 227.024,66.021 230.827,66.897 C233.255,67.451 233.835,67.861 233.835,68.605 L233.835,68.648 C233.835,69.424 233.125,69.871 231.8,69.871 C230.235,69.871 228.727,69.453 227.326,68.639 C226.921,68.437 226.428,68.167 225.787,68.308 C225.524,68.368 225.321,68.544 225.107,68.798 L223.237,71.031 C225.432,72.978 228.456,73.978 231.621,73.978 C235.965,73.978 238.848,71.811 238.848,68.168 L238.848,68.118 C238.848,64.778 236.29,63.444 232.19,62.55 M212.42,61.685 L214.418,66.761 L210.394,66.761 L212.421,61.685 L212.42,61.685 Z M207.721,73.671 L208.622,71.416 C208.763,71.059 209.065,70.684 209.442,70.618 L215.842,70.618 L217.094,73.671 L222.408,73.671 L214.841,55.819 L210.779,55.819 C210.179,55.887 209.939,56.205 209.725,56.636 L202.502,73.671 L207.722,73.671 L207.721,73.671 Z M101.94,62.38 C101.94,63.786 100.871,64.697 99.107,64.697 L96.15,64.697 L96.15,60.759 C96.15,60.335 96.497,59.985 96.917,59.985 L99.077,59.985 C100.872,59.985 101.941,60.795 101.941,62.33 L101.941,62.38 L101.94,62.38 Z M96.15,73.674 C96.15,72.346 96.142,69.343 96.15,69.17 C96.1635852,68.9136935 96.3265012,68.6892924 96.566,68.597 C96.673,68.56 96.795,68.571 96.906,68.571 L98.814,68.57 C100.144,68.57 101.464,68.459 102.724,68.01 C104.049,67.538 105.24,66.726 105.996,65.518 C106.736,64.33 106.981,62.889 106.87,61.508 C106.79,60.478 106.48,59.464 105.897,58.603 C104.656,56.775 102.445,55.995 100.315,55.848 C100.030546,55.8261059 99.7452836,55.8164304 99.46,55.819 C98.612,55.821 97.765,55.819 96.917,55.819 L93.405,55.819 C92.565,55.819 91.195,55.78 91.195,56.986 L91.195,73.674 L96.15,73.674 L96.15,73.674 Z" id="Shape" fill="#34332F"></path>
        </g>
    </g>
</svg>